<svg width="36" height="36" viewBox="0 0 36 36" fill="none" xmlns="http://www.w3.org/2000/svg">
<circle cx="18" cy="18" r="18" fill="#5476A4"/>
<path fill-rule="evenodd" clip-rule="evenodd" d="M17.1555 25.1492H18.5189C18.5189 25.1492 18.93 25.1076 19.1398 24.8981C19.3335 24.7065 19.3271 24.3461 19.3271 24.3461C19.3271 24.3461 19.3012 22.6594 20.1492 22.4112C20.9853 22.166 22.0604 24.0413 23.1989 24.7621C24.0609 25.3081 24.7141 25.189 24.7141 25.189L27.7594 25.1492C27.7594 25.1492 29.3521 25.0589 28.5967 23.9033C28.5353 23.809 28.1565 23.0486 26.3325 21.487C24.4235 19.8519 24.6796 20.116 26.9793 17.2886C28.3793 15.5662 28.9399 14.5148 28.7645 14.0651C28.5977 13.6353 27.5679 13.7494 27.5679 13.7494L24.1394 13.7693C24.1394 13.7693 23.8855 13.7365 23.6971 13.8408C23.5131 13.943 23.3947 14.1803 23.3947 14.1803C23.3947 14.1803 22.8513 15.5126 22.1282 16.6463C20.6012 19.0378 19.991 19.1639 19.7414 19.015C19.1613 18.6695 19.3066 17.6251 19.3066 16.8836C19.3066 14.5655 19.6865 13.5995 18.5641 13.3493C18.1918 13.2659 17.9174 13.2113 16.9639 13.2024C15.7404 13.1915 14.7052 13.2064 14.1198 13.4705C13.7291 13.6472 13.4289 14.0393 13.6118 14.0621C13.8378 14.0899 14.3511 14.1902 14.6234 14.5317C14.9753 14.9725 14.9624 15.9623 14.9624 15.9623C14.9624 15.9623 15.1647 18.6904 14.491 19.0299C14.0294 19.2622 13.3945 18.7877 12.0343 16.6175C11.3369 15.5066 10.8107 14.2776 10.8107 14.2776C10.8107 14.2776 10.7085 14.0482 10.5277 13.9251C10.3082 13.7772 10.0015 13.7296 10.0015 13.7296L6.74304 13.7494C6.74304 13.7494 6.25448 13.7613 6.07477 13.9579C5.91443 14.1326 6.06186 14.494 6.06186 14.494C6.06186 14.494 8.61224 19.9988 11.5005 22.7716C14.1488 25.316 17.1555 25.1492 17.1555 25.1492Z" fill="white"/>
</svg>
